30050,Computer Hardware,GEO Rocket,220ZX,Computer,Sales,344-667,1997-09-02 00:00:00,1995.5000,12,A,44577,
30051,Computer Hardware,GEO Blast,Surger 350,Computer,Sales,345-556,1997-09-02 00:00:00,2450.0000,12,A,44577,
30052,Office Furniture,FurnTown,GasRiser,Computer Chair,Sales,FC776445,1997-09-02 00:00:00,244.0000,6,B,44590,
30053,Office Furniture,FurnTown,WideSpan,Credenza,Sales,FF555-67554,1997-09-02 00:00:00,550.0000,3,B,44590,
30054,Computer Hardware,GEO Blast,Surger 350 XL,Computer,Admin & Accounts,445-778,1998-11-10 00:00:00,2560.0000,12,A,44577,
30055,Computer Hardware,GEO Blast,Laptop VVZ,Computer Laptop,Admin & Accounts,665-344-55,1998-12-12 00:00:00,5433.0000,24,A,44577,
30056,Office Furniture,FurnTown,GasRiser,Computer Chair,Sales,FC665444,1998-12-13 00:00:00,320.0000,6,B,44590,
30057,Office Furniture,FurnTown,WideSpan 6,Desk,Sales,FF6655444,1998-12-13 00:00:00,675.0000,3,B,44590,
30058,Office Furniture,Granville,Combo Unit,Executive Cupboard,Sales,V4433322,1998-12-13 00:00:00,1255.0000,12,B,44590,
30059,Computer Software,MicroSwift,Office Master,Software,Maintenance,MS334333,1998-12-14 00:00:00,899.0000,12,C,44692,
30061,General Equipment,Brenda,Pro Master,Stapler,Maintenance,S22W334,1999-02-07 00:00:00,350.0000,3,A,44523,
30062,Office Furniture,FurnTown,WideSpan 6,Desk,Maintenance,FF689933,1999-03-03 00:00:00,675.0000,3,B,44590,
30066,Computer Hardware,GEO Rocket,220zx,Computer,Sales,344-22346,1999-03-06 00:00:00,1895.5000,12,A,44577,
30067,Computer Hardware,GEO Rocket,220zx,Computer,Sales,344-22347,1999-03-06 00:00:00,1895.5000,12,A,44577,
30068,Office Furniture,FurnTown,GasRiser,Chair,Production,FC636444,1999-03-08 00:00:00,320.0000,6,B,44590,
30069,Office Furniture,FurnTown,WideSpan 6,Desk,Production,FF6844322,1999-03-08 00:00:00,675.0000,3,B,44590,
30070,Office Furniture,Granville,Combo Unit,Executive Cupboard,Production,V477655,1999-03-08 00:00:00,1255.0000,12,B,44590,
30071,General Equipment,Sandly,GF780,Photocopier,Sales,SGF44448-99,1999-03-10 00:00:00,6799.0000,24,A,44523,
30072,General Equipment,Sandly,GF650,Photocopier,Maintenance,SGF445665-77,1999-03-10 00:00:00,3500.0000,24,A,44523,
30073,Computer Hardware,Dennis,H445,Laser Printer,Maintenance,DF556-33444,1999-03-12 00:00:00,2340.0000,12,A,44587,
30074,Computer Hardware,Dennis,H445,Laser Printer,Sales,DF556-33445,1999-03-12 00:00:00,2340.0000,12,A,44587,
30075,Computer Hardware,Dennis,H445,Laser Printer,Production,DF556-33446,1999-03-12 00:00:00,2340.0000,12,A,44587,
30076,Computer Hardware,Dennis,H445,Laser Printer,Admin & Accounts,DF556-33447,1999-03-12 00:00:00,2340.0000,12,A,44587,
30077,General Equipment,GFE,H990C,Fax Machine,Admin & Accounts,G334-3345,1999-03-12 00:00:00,2544.0000,12,A,44523,
30078,Computer Hardware,MicroSwift,DrawMate,Software,Production,MS334222,1999-03-13 00:00:00,250.0000,12,C,44692,
30079,Computer Hardware,MicroSwift,Office Master,Software,Maintenance,MS323889,1999-04-12 00:00:00,720.0000,12,C,44692,
30080,Computer Hardware,MicroSwift,Office Master,Software,Production,MS334366,1999-04-12 00:00:00,720.0000,12,C,44692,
30081,General Equipment,Muilor,Cruncher,Shredder,Sales,M667-44455,1999-05-14 00:00:00,1200.0000,12,A,44523,
30082,General Equipment,Muilor,Cruncher,Shredder,Admin & Accounts,M667-44477,1999-05-14 00:00:00,1200.0000,12,A,44523,
30083,General Equipment,Muilor,Cruncher,Shredder,Production,M667-44488,1999-05-14 00:00:00,1200.0000,12,A,44523,
30084,Office Furniture,FurnTown,GasRiser,Chair,Admin & Accounts,FC636454,1999-06-15 00:00:00,433.0000,6,B,44590,
30085,Office Furniture,FurnTown,WideSpan 6,Desk,Admin & Accounts,FF684466,1999-06-15 00:00:00,779.0000,3,B,44590,
30086,Office Furniture,Granville,Combo Unit,Executive Cupboard,Production,V4776556,1999-06-15 00:00:00,1366.0000,12,B,44590,
30087,Office Furniture,FurnTown,GasRiser,Chair,Sales,FC776449,1999-06-17 00:00:00,244.0000,6,B,44590,
30088,Office Furniture,FurnTown,WideSpan,Desk,Sales,FF55567589,1999-06-17 00:00:00,550.0000,3,B,44590,
30089,Computer Hardware,GEO Blast,Surger 350 XL,Computer,Production,445-7799,1999-06-18 00:00:00,2560.0000,12,A,44577,
30090,Computer Hardware,GEO Blast,Laptop VVZ,Computer,Sales,665-344775,1999-06-19 00:00:00,5433.0000,24,A,44577,
30091,Office Furniture,FurnTown,GasRiser,Chair,Production,FC665489,1999-06-19 00:00:00,320.0000,6,B,44590,
30092,Office Furniture,FurnTown,WideSpan 6,Desk,Production,FF6655466,1999-06-19 00:00:00,675.0000,3,B,44590,
30093,Office Furniture,FurnTown,WideSpan 6,Desk,Production,FF689932,1999-06-19 00:00:00,675.0000,3,B,44590,
30094,Computer Hardware,MicroSwift,Office Master,Software,Production,MS323827,1999-06-19 00:00:00,899.0000,12,C,44692,
30095,Computer Hardware,MicroSwift,Office Master,Software,Sales,MS334533,1999-06-19 00:00:00,899.0000,12,C,44692,
30096,General Equipment,Brenda,Pro Master,Stapler,Sales,S22W337,1999-06-19 00:00:00,350.0000,3,A,44523,
30097,Office Furniture,Granville,Combo Unit,Executive Cupboard,Sales,V4433321,1999-06-19 00:00:00,1255.0000,12,B,44590,
30098,Computer Hardware,MicroSwift,Office Master,Software,Maintenance,MS323244,1999-06-21 00:00:00,899.0000,12,C,44692,
30099,Office Furniture,FurnTown,WideSpan 6,Desk,Maintenance,FF689937,1999-06-22 00:00:00,675.0000,3,B,44590,
30100,General Equipment,Brenda,Pro Master,Stapler,Maintenance,S22W336,1999-06-22 00:00:00,350.0000,3,A,44523,
30101,Office Furniture,FurnTown,GasRiser,Chair,Production,FC634980,1999-06-23 00:00:00,320.0000,6,B,44590,
30102,Computer Hardware,GEO Rocket,220zx,Computer,Production,344-22343,1999-06-24 00:00:00,1895.5000,12,A,44523,
30103,Office Furniture,Granville,Combo Unit,Executive Cupboard,Production,V4665557,1999-06-24 00:00:00,1255.0000,12,B,44590,
30104,Computer Hardware,GEO Rocket,220zx,Computer,Maintenance,344-22356,1999-06-25 00:00:00,1895.5000,12,A,44523,
30105,Computer Hardware,GEO Rocket,220zx,Computer,Sales,344-22388,1999-06-25 00:00:00,1895.5000,12,A,44523,
30106,Office Furniture,FurnTown,WideSpan 6,Desk,Sales,FF6844328,1999-06-26 00:00:00,675.0000,3,B,44590,
30107,Office Furniture,FurnTown,GasRiser,Chair,Sales,FC636447,1999-06-27 00:00:00,320.0000,6,B,44590,
30108,General Equipment,Sandly,GF650,Photocopier,Sales,SGF445665-65,1999-06-27 00:00:00,3500.0000,24,A,44523,
30109,Office Furniture,Granville,Combo Unit,Executive Cupboard,Maintenance,V477657,1999-06-27 00:00:00,1255.0000,12,B,44590,
30110,Computer Hardware,GEO Blast,Laptop VVZ,Computer,Admin & Accounts,665-344-67,1999-07-15 00:00:00,5999.0000,24,A,44577,
30111,Office Furniture,FurnTown,GasRiser,Chair,Sales,FC665332,1999-07-16 00:00:00,475.0000,6,B,44590,
30112,Office Furniture,FurnTown,WideSpan 6,Desk,Sales,FF6655,1999-07-21 00:00:00,789.0000,3,B,44590,
30113,Office Furniture,Granville,Combo Unit,Executive Cupboard,Sales,V9833322,1999-08-23 00:00:00,1567.0000,12,B,44590,
30114,Computer Hardware,MicroSwift,Office Master,Software,Maintenance,MS334673,1999-08-25 00:00:00,1120.0000,12,C,44692,
30115,Computer Hardware,MicroSwift,Office Master,Software,Production,MS323299,1999-08-28 00:00:00,1120.0000,12,C,44692,
30116,General Equipment,Brenda,Pro Master,Stapler,Maintenance,S22W369,1999-09-01 00:00:00,456.0000,3,A,44523,
30117,Office Furniture,FurnTown,WideSpan 6,Desk,Maintenance,FF689533,1999-09-05 00:00:00,899.0000,3,B,44590,
30118,Office Furniture,Davis Reece,Esquire,Directors Desk,Management,DR555677,1999-10-27 00:00:00,3425.5000,0,,,
30110,Admin & Accounts,Computer Hardware,GEO Blast,Laptop VVZ,5999.0000
30054,Admin & Accounts,Computer Hardware,GEO Blast,Surger 350 XL,2560.0000
30055,Admin & Accounts,Computer Hardware,GEO Blast,Laptop VVZ,5433.0000
30076,Admin & Accounts,Computer Hardware,Dennis,H445,2340.0000
30079,Maintenance,Computer Hardware,MicroSwift,Office Master,720.0000
30114,Maintenance,Computer Hardware,MicroSwift,Office Master,1120.0000
30104,Maintenance,Computer Hardware,GEO Rocket,220zx,1895.5000
30098,Maintenance,Computer Hardware,MicroSwift,Office Master,899.0000
30073,Maintenance,Computer Hardware,Dennis,H445,2340.0000
30075,Production,Computer Hardware,Dennis,H445,2340.0000
30080,Production,Computer Hardware,MicroSwift,Office Master,720.0000
30115,Production,Computer Hardware,MicroSwift,Office Master,1120.0000
30089,Production,Computer Hardware,GEO Blast,Surger 350 XL,2560.0000
30094,Production,Computer Hardware,MicroSwift,Office Master,899.0000
30102,Production,Computer Hardware,GEO Rocket,220zx,1895.5000
30078,Production,Computer Hardware,MicroSwift,DrawMate,250.0000
30050,Sales,Computer Hardware,GEO Rocket,220ZX,1995.5000
30090,Sales,Computer Hardware,GEO Blast,Laptop VVZ,5433.0000
30074,Sales,Computer Hardware,Dennis,H445,2340.0000
30095,Sales,Computer Hardware,MicroSwift,Office Master,899.0000
30067,Sales,Computer Hardware,GEO Rocket,220zx,1895.5000
30066,Sales,Computer Hardware,GEO Rocket,220zx,1895.5000
30105,Sales,Computer Hardware,GEO Rocket,220zx,1895.5000
30051,Sales,Computer Hardware,GEO Blast,Surger 350,2450.0000
Admin & Accounts,Computer Hardware,16332.0000
Admin & Accounts,General Equipment,3744.0000
Admin & Accounts,Office Furniture,1212.0000
Maintenance,Computer Hardware,6974.5000
Maintenance,Computer Software,899.0000
Maintenance,General Equipment,4656.0000
Maintenance,Office Furniture,3504.0000
Management,Office Furniture,3425.5000
Production,Computer Hardware,9784.5000
Production,General Equipment,1200.0000
Production,Office Furniture,6861.0000
Sales,Computer Hardware,18804.0000
Sales,General Equipment,11849.0000
Sales,Office Furniture,8919.0000
30050,GEO Rocket,220ZX,1997-09-02 00:00:00,1995.5000,1635.655737704918,359.8442622950819672131147541
30051,GEO Blast,Surger 350,1997-09-02 00:00:00,2450.0000,2008.1967213114754,441.8032786885245901639344262
30052,FurnTown,GasRiser,1997-09-02 00:00:00,244.0000,200.0,44.0000
30053,FurnTown,WideSpan,1997-09-02 00:00:00,550.0000,450.81967213114757,99.18032786885245901639344262
30054,GEO Blast,Surger 350 XL,1998-11-10 00:00:00,2560.0000,2098.3606557377047,461.6393442622950819672131148
30055,GEO Blast,Laptop VVZ,1998-12-12 00:00:00,5433.0000,4453.2786885245905,979.7213114754098360655737705
30056,FurnTown,GasRiser,1998-12-13 00:00:00,320.0000,262.2950819672131,57.70491803278688524590163934
30057,FurnTown,WideSpan 6,1998-12-13 00:00:00,675.0000,553.2786885245902,121.72131147540983606557377049
30058,Granville,Combo Unit,1998-12-13 00:00:00,1255.0000,1028.688524590164,226.3114754098360655737704918
30059,MicroSwift,Office Master,1998-12-14 00:00:00,899.0000,736.8852459016393,162.11475409836065573770491803
30061,Brenda,Pro Master,1999-02-07 00:00:00,350.0000,286.88524590163934,63.11475409836065573770491803
30062,FurnTown,WideSpan 6,1999-03-03 00:00:00,675.0000,553.2786885245902,121.72131147540983606557377049
30066,GEO Rocket,220zx,1999-03-06 00:00:00,1895.5000,1553.688524590164,341.8114754098360655737704918
30067,GEO Rocket,220zx,1999-03-06 00:00:00,1895.5000,1553.688524590164,341.8114754098360655737704918
30068,FurnTown,GasRiser,1999-03-08 00:00:00,320.0000,262.2950819672131,57.70491803278688524590163934
30069,FurnTown,WideSpan 6,1999-03-08 00:00:00,675.0000,553.2786885245902,121.72131147540983606557377049
30070,Granville,Combo Unit,1999-03-08 00:00:00,1255.0000,1028.688524590164,226.3114754098360655737704918
30071,Sandly,GF780,1999-03-10 00:00:00,6799.0000,5572.950819672131,1226.0491803278688524590163934
30072,Sandly,GF650,1999-03-10 00:00:00,3500.0000,2868.8524590163934,631.1475409836065573770491803
30073,Dennis,H445,1999-03-12 00:00:00,2340.0000,1918.032786885246,421.9672131147540983606557377
30074,Dennis,H445,1999-03-12 00:00:00,2340.0000,1918.032786885246,421.9672131147540983606557377
30075,Dennis,H445,1999-03-12 00:00:00,2340.0000,1918.032786885246,421.9672131147540983606557377
30076,Dennis,H445,1999-03-12 00:00:00,2340.0000,1918.032786885246,421.9672131147540983606557377
30077,GFE,H990C,1999-03-12 00:00:00,2544.0000,2085.245901639344,458.7540983606557377049180328
30078,MicroSwift,DrawMate,1999-03-13 00:00:00,250.0000,204.91803278688525,45.08196721311475409836065574
30079,MicroSwift,Office Master,1999-04-12 00:00:00,720.0000,590.1639344262295,129.83606557377049180327868852
30080,MicroSwift,Office Master,1999-04-12 00:00:00,720.0000,590.1639344262295,129.83606557377049180327868852
30081,Muilor,Cruncher,1999-05-14 00:00:00,1200.0000,983.6065573770492,216.3934426229508196721311475
30082,Muilor,Cruncher,1999-05-14 00:00:00,1200.0000,983.6065573770492,216.3934426229508196721311475
30083,Muilor,Cruncher,1999-05-14 00:00:00,1200.0000,983.6065573770492,216.3934426229508196721311475
30084,FurnTown,GasRiser,1999-06-15 00:00:00,433.0000,354.91803278688525,78.08196721311475409836065574
30085,FurnTown,WideSpan 6,1999-06-15 00:00:00,779.0000,638.5245901639345,140.47540983606557377049180328
30086,Granville,Combo Unit,1999-06-15 00:00:00,1366.0000,1119.672131147541,246.327868852459016393442623
30087,FurnTown,GasRiser,1999-06-17 00:00:00,244.0000,200.0,44.0000
30088,FurnTown,WideSpan,1999-06-17 00:00:00,550.0000,450.81967213114757,99.18032786885245901639344262
30089,GEO Blast,Surger 350 XL,1999-06-18 00:00:00,2560.0000,2098.3606557377047,461.6393442622950819672131148
30090,GEO Blast,Laptop VVZ,1999-06-19 00:00:00,5433.0000,4453.2786885245905,979.7213114754098360655737705
30091,FurnTown,GasRiser,1999-06-19 00:00:00,320.0000,262.2950819672131,57.70491803278688524590163934
30092,FurnTown,WideSpan 6,1999-06-19 00:00:00,675.0000,553.2786885245902,121.72131147540983606557377049
30093,FurnTown,WideSpan 6,1999-06-19 00:00:00,675.0000,553.2786885245902,121.72131147540983606557377049
30094,MicroSwift,Office Master,1999-06-19 00:00:00,899.0000,736.8852459016393,162.11475409836065573770491803
30095,MicroSwift,Office Master,1999-06-19 00:00:00,899.0000,736.8852459016393,162.11475409836065573770491803
30096,Brenda,Pro Master,1999-06-19 00:00:00,350.0000,286.88524590163934,63.11475409836065573770491803
30097,Granville,Combo Unit,1999-06-19 00:00:00,1255.0000,1028.688524590164,226.3114754098360655737704918
30098,MicroSwift,Office Master,1999-06-21 00:00:00,899.0000,736.8852459016393,162.11475409836065573770491803
30099,FurnTown,WideSpan 6,1999-06-22 00:00:00,675.0000,553.2786885245902,121.72131147540983606557377049
30100,Brenda,Pro Master,1999-06-22 00:00:00,350.0000,286.88524590163934,63.11475409836065573770491803
30101,FurnTown,GasRiser,1999-06-23 00:00:00,320.0000,262.2950819672131,57.70491803278688524590163934
30102,GEO Rocket,220zx,1999-06-24 00:00:00,1895.5000,1553.688524590164,341.8114754098360655737704918
30103,Granville,Combo Unit,1999-06-24 00:00:00,1255.0000,1028.688524590164,226.3114754098360655737704918
30104,GEO Rocket,220zx,1999-06-25 00:00:00,1895.5000,1553.688524590164,341.8114754098360655737704918
30105,GEO Rocket,220zx,1999-06-25 00:00:00,1895.5000,1553.688524590164,341.8114754098360655737704918
30106,FurnTown,WideSpan 6,1999-06-26 00:00:00,675.0000,553.2786885245902,121.72131147540983606557377049
30107,FurnTown,GasRiser,1999-06-27 00:00:00,320.0000,262.2950819672131,57.70491803278688524590163934
30108,Sandly,GF650,1999-06-27 00:00:00,3500.0000,2868.8524590163934,631.1475409836065573770491803
30109,Granville,Combo Unit,1999-06-27 00:00:00,1255.0000,1028.688524590164,226.3114754098360655737704918
30110,GEO Blast,Laptop VVZ,1999-07-15 00:00:00,5999.0000,4917.213114754099,1081.7868852459016393442622951
30111,FurnTown,GasRiser,1999-07-16 00:00:00,475.0000,389.344262295082,85.6557377049180327868852459
30112,FurnTown,WideSpan 6,1999-07-21 00:00:00,789.0000,646.7213114754098,142.27868852459016393442622951
30113,Granville,Combo Unit,1999-08-23 00:00:00,1567.0000,1284.4262295081967,282.5737704918032786885245902
30114,MicroSwift,Office Master,1999-08-25 00:00:00,1120.0000,918.032786885246,201.9672131147540983606557377
30115,MicroSwift,Office Master,1999-08-28 00:00:00,1120.0000,918.032786885246,201.9672131147540983606557377
30116,Brenda,Pro Master,1999-09-01 00:00:00,456.0000,373.7704918032787,82.22950819672131147540983607
30117,FurnTown,WideSpan 6,1999-09-05 00:00:00,899.0000,736.8852459016393,162.11475409836065573770491803
30118,Davis Reece,Esquire,1999-10-27 00:00:00,3425.5000,2807.786885245902,617.7131147540983606557377049
